{
  "openapi": "3.0.2",
  "info": {
    "title": "Eventir",
    "description": "An API for event management and attendance tracking",
    "license": {
      "name": "MIT License",
      "url": "https://opensource.org/licenses/MIT"
    },
    "version": "1.0.0"
  },
  "paths": {
    "/users": {
      "summary": "Path used to manage the list of users.",
      "description": "The REST endpoint/path used to list and create zero or more `user` entities.  This path contains a `GET` and `POST` operation to perform the list and create tasks, respectively.",
      "get": {
        "summary": "List All users",
        "description": "Gets a list of all `user` entities.",
        "operationId": "getusers",
        "responses": {
          "200": {
            "description": "Successful response - returns an array of `user` entities.",
            "content": {
              "application/json": {
                "schema": {
                  "type": "array",
                  "items": {
                    "$ref": "#/components/schemas/user"
                  }
                }
              }
            }
          }
        }
      },
      "post": {
        "summary": "Create a user",
        "description": "Creates a new instance of a `user`.",
        "operationId": "createuser",
        "requestBody": {
          "description": "A new `user` to be created.",
          "content": {
            "application/json": {
              "schema": {
                "$ref": "#/components/schemas/user"
              }
            }
          },
          "required": true
        },
        "responses": {
          "201": {
            "description": "Successful response.",
            "content": {
              "application/json": {
                "schema": {
                  "$ref": "#/components/schemas/user"
                }
              }
            }
          }
        }
      }
    },
    "/users/{userId}": {
      "summary": "Path used to manage a single user.",
      "description": "The REST endpoint/path used to get, update, and delete single instances of an `user`.  This path contains `GET`, `PUT`, and `DELETE` operations used to perform the get, update, and delete tasks, respectively.",
      "get": {
        "summary": "Get a user",
        "description": "Gets the details of a single instance of a `user`.",
        "operationId": "getuser",
        "responses": {
          "200": {
            "description": "Successful response - returns a single `user`.",
            "content": {
              "application/json": {
                "schema": {
                  "$ref": "#/components/schemas/user"
                }
              }
            }
          }
        }
      },
      "put": {
        "summary": "Update a user",
        "description": "Updates an existing `user`.",
        "operationId": "updateuser",
        "requestBody": {
          "description": "Updated `user` information.",
          "content": {
            "application/json": {
              "schema": {
                "$ref": "#/components/schemas/user"
              }
            }
          },
          "required": true
        },
        "responses": {
          "202": {
            "description": "Successful response."
          }
        }
      },
      "delete": {
        "summary": "Delete a user",
        "description": "Deletes an existing `user`.",
        "operationId": "deleteuser",
        "responses": {
          "204": {
            "description": "Successful response."
          }
        }
      },
      "parameters": [
        {
          "name": "userId",
          "in": "path",
          "description": "A unique identifier for a `user`.",
          "required": true,
          "schema": {
            "type": "string"
          }
        }
      ]
    },
    "/teams": {
      "summary": "Path used to manage the list of teams.",
      "description": "The REST endpoint/path used to list and create zero or more `team` entities.  This path contains a `GET` and `POST` operation to perform the list and create tasks, respectively.",
      "get": {
        "summary": "List All teams",
        "description": "Gets a list of all `team` entities.",
        "operationId": "getteams",
        "responses": {
          "200": {
            "description": "Successful response - returns an array of `team` entities.",
            "content": {
              "application/json": {
                "schema": {
                  "type": "array",
                  "items": {
                    "$ref": "#/components/schemas/team"
                  }
                }
              }
            }
          }
        }
      },
      "post": {
        "summary": "Create a team",
        "description": "Creates a new instance of a `team`.",
        "operationId": "createteam",
        "requestBody": {
          "description": "A new `team` to be created.",
          "content": {
            "application/json": {
              "schema": {
                "$ref": "#/components/schemas/team"
              }
            }
          },
          "required": true
        },
        "responses": {
          "201": {
            "description": "Successful response.",
            "content": {
              "application/json": {
                "schema": {
                  "$ref": "#/components/schemas/team"
                }
              }
            }
          }
        }
      }
    },
    "/teams/{teamId}": {
      "summary": "Path used to manage a single team.",
      "description": "The REST endpoint/path used to get, update, and delete single instances of an `team`.  This path contains `GET`, `PUT`, and `DELETE` operations used to perform the get, update, and delete tasks, respectively.",
      "get": {
        "summary": "Get a team",
        "description": "Gets the details of a single instance of a `team`.",
        "operationId": "getteam",
        "responses": {
          "200": {
            "description": "Successful response - returns a single `team`.",
            "content": {
              "application/json": {
                "schema": {
                  "$ref": "#/components/schemas/team"
                }
              }
            }
          }
        }
      },
      "put": {
        "summary": "Update a team",
        "description": "Updates an existing `team`.",
        "operationId": "updateteam",
        "requestBody": {
          "description": "Updated `team` information.",
          "content": {
            "application/json": {
              "schema": {
                "$ref": "#/components/schemas/team"
              }
            }
          },
          "required": true
        },
        "responses": {
          "202": {
            "description": "Successful response."
          }
        }
      },
      "delete": {
        "summary": "Delete a team",
        "description": "Deletes an existing `team`.",
        "operationId": "deleteteam",
        "responses": {
          "204": {
            "description": "Successful response."
          }
        }
      },
      "parameters": [
        {
          "name": "teamId",
          "in": "path",
          "description": "A unique identifier for a `team`.",
          "required": true,
          "schema": {
            "type": "string"
          }
        }
      ]
    },
    "/sessions": {
      "summary": "Path used to manage the list of sessions.",
      "description": "The REST endpoint/path used to list and create zero or more `session` entities.  This path contains a `GET` and `POST` operation to perform the list and create tasks, respectively.",
      "get": {
        "summary": "List All sessions",
        "description": "Gets a list of all `session` entities.",
        "operationId": "getsessions",
        "responses": {
          "200": {
            "description": "Successful response - returns an array of `session` entities.",
            "content": {
              "application/json": {
                "schema": {
                  "type": "array",
                  "items": {
                    "$ref": "#/components/schemas/session"
                  }
                }
              }
            }
          }
        }
      },
      "post": {
        "summary": "Create a session",
        "description": "Creates a new instance of a `session`.",
        "operationId": "createsession",
        "requestBody": {
          "description": "A new `session` to be created.",
          "content": {
            "application/json": {
              "schema": {
                "$ref": "#/components/schemas/session"
              }
            }
          },
          "required": true
        },
        "responses": {
          "201": {
            "description": "Successful response.",
            "content": {
              "application/json": {
                "schema": {
                  "$ref": "#/components/schemas/session"
                }
              }
            }
          }
        }
      }
    },
    "/sessions/{sessionId}": {
      "summary": "Path used to manage a single session.",
      "description": "The REST endpoint/path used to get, update, and delete single instances of an `session`.  This path contains `GET`, `PUT`, and `DELETE` operations used to perform the get, update, and delete tasks, respectively.",
      "get": {
        "summary": "Get a session",
        "description": "Gets the details of a single instance of a `session`.",
        "operationId": "getsession",
        "responses": {
          "200": {
            "description": "Successful response - returns a single `session`.",
            "content": {
              "application/json": {
                "schema": {
                  "$ref": "#/components/schemas/session"
                }
              }
            }
          }
        }
      },
      "put": {
        "summary": "Update a session",
        "description": "Updates an existing `session`.",
        "operationId": "updatesession",
        "requestBody": {
          "description": "Updated `session` information.",
          "content": {
            "application/json": {
              "schema": {
                "$ref": "#/components/schemas/session"
              }
            }
          },
          "required": true
        },
        "responses": {
          "202": {
            "description": "Successful response."
          }
        }
      },
      "delete": {
        "summary": "Delete a session",
        "description": "Deletes an existing `session`.",
        "operationId": "deletesession",
        "responses": {
          "204": {
            "description": "Successful response."
          }
        }
      },
      "parameters": [
        {
          "name": "sessionId",
          "in": "path",
          "description": "A unique identifier for a `session`.",
          "required": true,
          "schema": {
            "type": "string"
          }
        }
      ]
    },
    "/events": {
      "summary": "Path used to manage the list of events.",
      "description": "The REST endpoint/path used to list and create zero or more `event` entities.  This path contains a `GET` and `POST` operation to perform the list and create tasks, respectively.",
      "get": {
        "summary": "List All events",
        "description": "Gets a list of all `event` entities.",
        "operationId": "getevents",
        "responses": {
          "200": {
            "description": "Successful response - returns an array of `event` entities.",
            "content": {
              "application/json": {
                "schema": {
                  "type": "array",
                  "items": {
                    "$ref": "#/components/schemas/event"
                  }
                }
              }
            }
          }
        }
      },
      "post": {
        "summary": "Create a event",
        "description": "Creates a new instance of a `event`.",
        "operationId": "createevent",
        "requestBody": {
          "description": "A new `event` to be created.",
          "content": {
            "application/json": {
              "schema": {
                "$ref": "#/components/schemas/event"
              }
            }
          },
          "required": true
        },
        "responses": {
          "201": {
            "description": "Successful response.",
            "content": {
              "application/json": {
                "schema": {
                  "$ref": "#/components/schemas/event"
                }
              }
            }
          }
        }
      }
    },
    "/events/{eventId}": {
      "summary": "Path used to manage a single event.",
      "description": "The REST endpoint/path used to get, update, and delete single instances of an `event`.  This path contains `GET`, `PUT`, and `DELETE` operations used to perform the get, update, and delete tasks, respectively.",
      "get": {
        "summary": "Get a event",
        "description": "Gets the details of a single instance of a `event`.",
        "operationId": "getevent",
        "responses": {
          "200": {
            "description": "Successful response - returns a single `event`.",
            "content": {
              "application/json": {
                "schema": {
                  "$ref": "#/components/schemas/event"
                }
              }
            }
          }
        }
      },
      "put": {
        "summary": "Update a event",
        "description": "Updates an existing `event`.",
        "operationId": "updateevent",
        "requestBody": {
          "description": "Updated `event` information.",
          "content": {
            "application/json": {
              "schema": {
                "$ref": "#/components/schemas/event"
              }
            }
          },
          "required": true
        },
        "responses": {
          "202": {
            "description": "Successful response."
          }
        }
      },
      "delete": {
        "summary": "Delete a event",
        "description": "Deletes an existing `event`.",
        "operationId": "deleteevent",
        "responses": {
          "204": {
            "description": "Successful response."
          }
        }
      },
      "parameters": [
        {
          "name": "eventId",
          "in": "path",
          "description": "A unique identifier for a `event`.",
          "required": true,
          "schema": {
            "type": "string"
          }
        }
      ]
    },
    "/checkins": {
      "summary": "Path used to manage the list of Checkins.",
      "description": "The REST endpoint/path used to list and create zero or more `Checkin` entities.  This path contains a `GET` and `POST` operation to perform the list and create tasks, respectively.",
      "get": {
        "summary": "List All Checkins",
        "description": "Gets a list of all `Checkin` entities.",
        "operationId": "getCheckins",
        "responses": {
          "200": {
            "description": "Successful response - returns an array of `Checkin` entities.",
            "content": {
              "application/json": {
                "schema": {
                  "type": "array",
                  "items": {
                    "$ref": "#/components/schemas/checkin"
                  }
                }
              }
            }
          }
        }
      },
      "post": {
        "summary": "Create a Checkin",
        "description": "Creates a new instance of a `Checkin`.",
        "operationId": "createCheckin",
        "requestBody": {
          "description": "A new `Checkin` to be created.",
          "content": {
            "application/json": {
              "schema": {
                "$ref": "#/components/schemas/checkin"
              }
            }
          },
          "required": true
        },
        "responses": {
          "201": {
            "description": "Successful response.",
            "content": {
              "application/json": {
                "schema": {
                  "$ref": "#/components/schemas/checkin"
                }
              }
            }
          }
        }
      }
    },
    "/checkins/{checkinId}": {
      "summary": "Path used to manage a single Checkin.",
      "description": "The REST endpoint/path used to get, update, and delete single instances of an `Checkin`.  This path contains `GET`, `PUT`, and `DELETE` operations used to perform the get, update, and delete tasks, respectively.",
      "get": {
        "summary": "Get a Checkin",
        "description": "Gets the details of a single instance of a `Checkin`.",
        "operationId": "getCheckin",
        "responses": {
          "200": {
            "description": "Successful response - returns a single `Checkin`.",
            "content": {
              "application/json": {
                "schema": {
                  "$ref": "#/components/schemas/checkin"
                }
              }
            }
          }
        }
      },
      "put": {
        "summary": "Update a Checkin",
        "description": "Updates an existing `Checkin`.",
        "operationId": "updateCheckin",
        "requestBody": {
          "description": "Updated `Checkin` information.",
          "content": {
            "application/json": {
              "schema": {
                "$ref": "#/components/schemas/checkin"
              }
            }
          },
          "required": true
        },
        "responses": {
          "202": {
            "description": "Successful response."
          }
        }
      },
      "delete": {
        "summary": "Delete a Checkin",
        "description": "Deletes an existing `Checkin`.",
        "operationId": "deleteCheckin",
        "responses": {
          "204": {
            "description": "Successful response."
          }
        }
      },
      "parameters": [
        {
          "name": "checkinId",
          "in": "path",
          "description": "A unique identifier for a `Checkin`.",
          "required": true,
          "schema": {
            "type": "string"
          }
        }
      ]
    },
    "/admins": {
      "summary": "Path used to manage the list of admins.",
      "description": "The REST endpoint/path used to list and create zero or more `admin` entities.  This path contains a `GET` and `POST` operation to perform the list and create tasks, respectively.",
      "get": {
        "summary": "List All admins",
        "description": "Gets a list of all `admin` entities.",
        "operationId": "getadmins",
        "responses": {
          "200": {
            "description": "Successful response - returns an array of `admin` entities.",
            "content": {
              "application/json": {
                "schema": {
                  "type": "array",
                  "items": {
                    "$ref": "#/components/schemas/admin"
                  }
                }
              }
            }
          }
        }
      },
      "post": {
        "summary": "Create a admin",
        "description": "Creates a new instance of a `admin`.",
        "operationId": "createadmin",
        "requestBody": {
          "description": "A new `admin` to be created.",
          "content": {
            "application/json": {
              "schema": {
                "$ref": "#/components/schemas/admin"
              }
            }
          },
          "required": true
        },
        "responses": {
          "201": {
            "description": "Successful response.",
            "content": {
              "application/json": {
                "schema": {
                  "$ref": "#/components/schemas/admin"
                }
              }
            }
          }
        }
      }
    },
    "/admins/{adminId}": {
      "summary": "Path used to manage a single admin.",
      "description": "The REST endpoint/path used to get, update, and delete single instances of an `admin`.  This path contains `GET`, `PUT`, and `DELETE` operations used to perform the get, update, and delete tasks, respectively.",
      "get": {
        "summary": "Get a admin",
        "description": "Gets the details of a single instance of a `admin`.",
        "operationId": "getadmin",
        "responses": {
          "200": {
            "description": "Successful response - returns a single `admin`.",
            "content": {
              "application/json": {
                "schema": {
                  "$ref": "#/components/schemas/admin"
                }
              }
            }
          }
        }
      },
      "put": {
        "summary": "Update a admin",
        "description": "Updates an existing `admin`.",
        "operationId": "updateadmin",
        "requestBody": {
          "description": "Updated `admin` information.",
          "content": {
            "application/json": {
              "schema": {
                "$ref": "#/components/schemas/admin"
              }
            }
          },
          "required": true
        },
        "responses": {
          "202": {
            "description": "Successful response."
          }
        }
      },
      "delete": {
        "summary": "Delete a admin",
        "description": "Deletes an existing `admin`.",
        "operationId": "deleteadmin",
        "responses": {
          "204": {
            "description": "Successful response."
          }
        }
      },
      "parameters": [
        {
          "name": "adminId",
          "in": "path",
          "description": "A unique identifier for a `admin`.",
          "required": true,
          "schema": {
            "type": "string"
          }
        }
      ]
    },
    "/users/{userId}/teams": {
      "summary": "Path used to get a user's teams.",
      "description": "The REST endpoint used to `GET` the `team`s on which the `user` with userId is a member.",
      "get": {
        "summary": "Gets a user's teams",
        "description": "Gets all the `team`s on which the user is a member.",
        "operationId": "getuserteams",
        "parameters": [
          {
            "name": "userId",
            "in": "path",
            "description": "A unique identifier for a `user`",
            "required": true,
            "schema": {
              "type": "string"
            }
          }
        ],
        "responses": {
          "200": {
            "description": "Successful response-returns an array of `team`s.",
            "content": {
              "application/json": {
                "schema": {
                  "type": "array",
                  "items": {
                    "$ref": "#/components/schemas/team"
                  }
                }
              }
            }
          }
        }
      }
    },
    "/rsvps": {
      "summary": "Path used to manage the list of rsvps.",
      "description": "The REST endpoint/path used to list and create zero or more `rsvp` entities.  This path contains a `GET` and `POST` operation to perform the list and create tasks, respectively.",
      "get": {
        "summary": "List All rsvps",
        "description": "Gets a list of all `rsvp` entities.",
        "operationId": "getrsvps",
        "responses": {
          "200": {
            "description": "Successful response - returns an array of `rsvp` entities.",
            "content": {
              "application/json": {
                "schema": {
                  "type": "array",
                  "items": {
                    "$ref": "#/components/schemas/rsvp"
                  }
                }
              }
            }
          }
        }
      },
      "post": {
        "summary": "Create a rsvp",
        "description": "Creates a new instance of a `rsvp`.",
        "operationId": "creatersvp",
        "requestBody": {
          "description": "A new `rsvp` to be created.",
          "content": {
            "application/json": {
              "schema": {
                "$ref": "#/components/schemas/rsvp"
              }
            }
          },
          "required": true
        },
        "responses": {
          "201": {
            "description": "Successful response."
          }
        }
      }
    },
    "/rsvps/{rsvpId}": {
      "summary": "Path used to manage a single rsvp.",
      "description": "The REST endpoint/path used to get, update, and delete single instances of an `rsvp`.  This path contains `GET`, `PUT`, and `DELETE` operations used to perform the get, update, and delete tasks, respectively.",
      "get": {
        "summary": "Get a rsvp",
        "description": "Gets the details of a single instance of a `rsvp`.",
        "operationId": "getrsvp",
        "responses": {
          "200": {
            "description": "Successful response - returns a single `rsvp`.",
            "content": {
              "application/json": {
                "schema": {
                  "$ref": "#/components/schemas/rsvp"
                }
              }
            }
          }
        }
      },
      "put": {
        "summary": "Update a rsvp",
        "description": "Updates an existing `rsvp`.",
        "operationId": "updatersvp",
        "requestBody": {
          "description": "Updated `rsvp` information.",
          "content": {
            "application/json": {
              "schema": {
                "$ref": "#/components/schemas/rsvp"
              }
            }
          },
          "required": true
        },
        "responses": {
          "202": {
            "description": "Successful response."
          }
        }
      },
      "delete": {
        "summary": "Delete a rsvp",
        "description": "Deletes an existing `rsvp`.",
        "operationId": "deletersvp",
        "responses": {
          "204": {
            "description": "Successful response."
          }
        }
      },
      "parameters": [
        {
          "name": "rsvpId",
          "in": "path",
          "description": "A unique identifier for a `rsvp`.",
          "required": true,
          "schema": {
            "type": "string"
          }
        }
      ]
    },
    "/users/{userId}/rsvps": {
      "summary": "Path used to get a user's rsvps.",
      "description": "The REST endpoint used to `GET` the `rsvp`s that the `user` with userId has made."
    },
    "/users/{userId}/checkins": {
      "summary": "Path used to get a user's checkins.",
      "description": "The REST endpoint used to `GET` the `checkin`s that the `user` with userId has made.",
      "get": {
        "summary": "Get list of checkins a user has been a part of.",
        "parameters": [
          {
            "name": "userId",
            "in": "path",
            "required": true,
            "schema": {
              "type": "integer"
            }
          }
        ],
        "responses": {
          "200": {
            "description": "Returns list of checkins. ",
            "content": {
              "application/json": {
                "schema": {
                  "type": "array",
                  "items": {
                    "$ref": "#/components/schemas/checkin"
                  }
                }
              }
            }
          }
        }
      }
    },
    "/login": {
      "get": {
        "summary": "Attempts to log in a user via OAuth",
        "responses": {
          "200": {
            "description": "Returns the resulting authentication token (JWT)"
          },
          "401": {
            "description": "Fails when the user cancels the OAuth flow or is not allowed in the system"
          }
        }
      }
    }
  },
  "components": {
    "schemas": {
      "user": {
        "title": "Root Type for user",
        "description": "The root of the user type's schema.",
        "required": [
          "userId"
        ],
        "type": "object",
        "properties": {
          "firstName": {
            "description": "The user's first name",
            "type": "string"
          },
          "lastName": {
            "description": "The user's surname",
            "type": "string"
          },
          "email": {
            "description": "The user's email address",
            "type": "string"
          },
          "userId": {
            "description": "The unique numeric identifier of the user",
            "type": "integer"
          }
        },
        "example": "{\n    \"firstName\": \"some text\",\n    \"lastName\": \"some text\",\n    \"email\": \"some text\",\n    \"userId\": 83\n}"
      },
      "checkin": {
        "description": "A single checkin by a user for a session",
        "required": [
          "checkinId",
          "session",
          "user",
          "inTime"
        ],
        "type": "object",
        "properties": {
          "checkinId": {
            "description": "The id of the checkin",
            "type": "integer"
          },
          "session": {
            "$ref": "#/components/schemas/session",
            "description": "The session checked in to"
          },
          "user": {
            "$ref": "#/components/schemas/user",
            "description": "The user of the checkin"
          },
          "inTime": {
            "format": "date-time",
            "description": "The time the user checked in to the event",
            "type": "string"
          }
        },
        "example": "{\n    \"checkinId\": 9,\n    \"session\": {\n        \"sessionId\": 44,\n        \"name\": \"some text\",\n        \"description\": \"some text\",\n        \"image\": \"some text\",\n        \"location\": \"some text\",\n        \"start\": \"2018-02-10T09:30Z\",\n        \"end\": \"2018-02-10T09:30Z\",\n        \"rsvps\": [\n            {\n                \"rsvpId\": 10,\n                \"user\": {\n                    \"firstName\": \"some text\",\n                    \"lastName\": \"some text\",\n                    \"email\": \"some text\",\n                    \"userId\": 41\n                },\n                \"session\": {}\n            },\n            {\n                \"rsvpId\": 65,\n                \"user\": {\n                    \"firstName\": \"some text\",\n                    \"lastName\": \"some text\",\n                    \"email\": \"some text\",\n                    \"userId\": 71\n                },\n                \"session\": {}\n            }\n        ],\n        \"sessionAdmins\": [\n            {\n                \"firstName\": \"some text\",\n                \"lastName\": \"some text\",\n                \"email\": \"some text\",\n                \"userId\": 39\n            },\n            {\n                \"firstName\": \"some text\",\n                \"lastName\": \"some text\",\n                \"email\": \"some text\",\n                \"userId\": 32\n            }\n        ]\n    },\n    \"user\": {\n        \"firstName\": \"some text\",\n        \"lastName\": \"some text\",\n        \"email\": \"some text\",\n        \"userId\": 86\n    },\n    \"inTime\": \"2018-02-10T09:30Z\"\n}"
      },
      "rsvp": {
        "description": "A single rsvp for a user to a session",
        "required": [
          "rsvpId",
          "user",
          "session"
        ],
        "type": "object",
        "properties": {
          "rsvpId": {
            "description": "The id of the RSVP",
            "type": "integer"
          },
          "user": {
            "$ref": "#/components/schemas/user",
            "description": "The user of the RSVP"
          },
          "session": {
            "$ref": "#/components/schemas/session",
            "description": "The session of the RSVP"
          }
        },
        "example": "{\n    \"rsvpId\": 61,\n    \"user\": {\n        \"firstName\": \"some text\",\n        \"lastName\": \"some text\",\n        \"email\": \"some text\",\n        \"userId\": 1\n    },\n    \"session\": {\n        \"sessionId\": 65,\n        \"name\": \"some text\",\n        \"description\": \"some text\",\n        \"image\": \"some text\",\n        \"location\": \"some text\",\n        \"start\": \"2018-02-10T09:30Z\",\n        \"end\": \"2018-02-10T09:30Z\",\n        \"rsvps\": [\n            {\n                \"rsvpId\": 82,\n                \"user\": {\n                    \"firstName\": \"some text\",\n                    \"lastName\": \"some text\",\n                    \"email\": \"some text\",\n                    \"userId\": 95\n                },\n                \"session\": {}\n            },\n            {\n                \"rsvpId\": 2,\n                \"user\": {\n                    \"firstName\": \"some text\",\n                    \"lastName\": \"some text\",\n                    \"email\": \"some text\",\n                    \"userId\": 54\n                },\n                \"session\": {}\n            }\n        ],\n        \"admins\": [\n            {\n                \"firstName\": \"some text\",\n                \"lastName\": \"some text\",\n                \"email\": \"some text\",\n                \"userId\": 56\n            },\n            {\n                \"firstName\": \"some text\",\n                \"lastName\": \"some text\",\n                \"email\": \"some text\",\n                \"userId\": 43\n            }\n        ]\n    }\n}"
      },
      "event": {
        "title": "Root Type for event",
        "description": "The root of the event type's schema.",
        "required": [
          "eventId",
          "name"
        ],
        "type": "object",
        "properties": {
          "eventId": {
            "description": "The id of the event",
            "type": "integer"
          },
          "name": {
            "description": "The brief but declarative name of the event",
            "type": "string"
          },
          "description": {
            "description": "A short description of the event",
            "type": "string"
          },
          "image": {
            "description": "A URL to the image for the event",
            "type": "string"
          },
          "sessions": {
            "description": "The sessions in the event",
            "type": "array",
            "items": {
              "$ref": "#/components/schemas/session"
            }
          },
          "eventAdmins": {
            "description": "The admins that can edit the event",
            "type": "array",
            "items": {
              "$ref": "#/components/schemas/user"
            }
          }
        },
        "example": "{\n    \"eventId\": 32,\n    \"name\": \"some text\",\n    \"description\": \"some text\",\n    \"image\": \"some text\",\n    \"sessions\": [\n        {\n            \"sessionId\": 95,\n            \"name\": \"some text\",\n            \"description\": \"some text\",\n            \"image\": \"some text\",\n            \"location\": \"some text\",\n            \"start\": \"2018-02-10T09:30Z\",\n            \"end\": \"2018-02-10T09:30Z\",\n            \"rsvps\": [\n                {\n                    \"rsvpId\": 66,\n                    \"user\": {\n                        \"firstName\": \"some text\",\n                        \"lastName\": \"some text\",\n                        \"email\": \"some text\",\n                        \"userId\": 50\n                    },\n                    \"session\": {}\n                },\n                {\n                    \"rsvpId\": 40,\n                    \"user\": {\n                        \"firstName\": \"some text\",\n                        \"lastName\": \"some text\",\n                        \"email\": \"some text\",\n                        \"userId\": 97\n                    },\n                    \"session\": {}\n                }\n            ],\n            \"admins\": [\n                {\n                    \"firstName\": \"some text\",\n                    \"lastName\": \"some text\",\n                    \"email\": \"some text\",\n                    \"userId\": 82\n                },\n                {\n                    \"firstName\": \"some text\",\n                    \"lastName\": \"some text\",\n                    \"email\": \"some text\",\n                    \"userId\": 94\n                }\n            ]\n        },\n        {\n            \"sessionId\": 88,\n            \"name\": \"some text\",\n            \"description\": \"some text\",\n            \"image\": \"some text\",\n            \"location\": \"some text\",\n            \"start\": \"2018-02-10T09:30Z\",\n            \"end\": \"2018-02-10T09:30Z\",\n            \"rsvps\": [\n                {\n                    \"rsvpId\": 44,\n                    \"user\": {\n                        \"firstName\": \"some text\",\n                        \"lastName\": \"some text\",\n                        \"email\": \"some text\",\n                        \"userId\": 41\n                    },\n                    \"session\": {}\n                },\n                {\n                    \"rsvpId\": 18,\n                    \"user\": {\n                        \"firstName\": \"some text\",\n                        \"lastName\": \"some text\",\n                        \"email\": \"some text\",\n                        \"userId\": 78\n                    },\n                    \"session\": {}\n                }\n            ],\n            \"admins\": [\n                {\n                    \"firstName\": \"some text\",\n                    \"lastName\": \"some text\",\n                    \"email\": \"some text\",\n                    \"userId\": 29\n                },\n                {\n                    \"firstName\": \"some text\",\n                    \"lastName\": \"some text\",\n                    \"email\": \"some text\",\n                    \"userId\": 97\n                }\n            ]\n        }\n    ],\n    \"admins\": [\n        {\n            \"firstName\": \"some text\",\n            \"lastName\": \"some text\",\n            \"email\": \"some text\",\n            \"userId\": 25\n        },\n        {\n            \"firstName\": \"some text\",\n            \"lastName\": \"some text\",\n            \"email\": \"some text\",\n            \"userId\": 68\n        }\n    ]\n}"
      },
      "session": {
        "title": "Root Type for session",
        "description": "The root of the session type's schema.",
        "required": [
          "sessionId",
          "end",
          "name",
          "start"
        ],
        "type": "object",
        "properties": {
          "sessionId": {
            "description": "The id of the session",
            "type": "integer"
          },
          "name": {
            "description": "The name of the session",
            "type": "string"
          },
          "description": {
            "description": "A short description of the session",
            "type": "string"
          },
          "image": {
            "description": "A URL to the image for the session",
            "type": "string"
          },
          "location": {
            "description": "A string description of the location of the session",
            "type": "string"
          },
          "start": {
            "format": "date-time",
            "description": "The start DateTime of the session",
            "type": "string"
          },
          "end": {
            "format": "date-time",
            "description": "The end DateTime of the session",
            "type": "string"
          },
          "rsvps": {
            "description": "The users RSVP'd to the session",
            "type": "array",
            "items": {
              "$ref": "#/components/schemas/rsvp"
            }
          },
          "sessionAdmins": {
            "description": "The admins that can edit the session",
            "type": "array",
            "items": {
              "$ref": "#/components/schemas/user"
            }
          }
        },
        "example": "{\n    \"sessionId\": 90,\n    \"name\": \"some text\",\n    \"description\": \"some text\",\n    \"image\": \"some text\",\n    \"location\": \"some text\",\n    \"start\": \"2018-02-10T09:30Z\",\n    \"end\": \"2018-02-10T09:30Z\",\n    \"rsvps\": [\n        {\n            \"firstName\": \"some text\",\n            \"lastName\": \"some text\",\n            \"email\": \"some text\",\n            \"userId\": 9\n        },\n        {\n            \"firstName\": \"some text\",\n            \"lastName\": \"some text\",\n            \"email\": \"some text\",\n            \"userId\": 10\n        }\n    ],\n    \"admins\": [\n        {\n            \"firstName\": \"some text\",\n            \"lastName\": \"some text\",\n            \"email\": \"some text\",\n            \"userId\": 99\n        },\n        {\n            \"firstName\": \"some text\",\n            \"lastName\": \"some text\",\n            \"email\": \"some text\",\n            \"userId\": 7\n        }\n    ]\n}"
      },
      "team": {
        "title": "Root Type for team",
        "description": "The root of the team type's schema.",
        "required": [
          "teamId",
          "owner"
        ],
        "type": "object",
        "properties": {
          "teamId": {
            "description": "The unique numeric identifier of the team",
            "type": "integer"
          },
          "teamName": {
            "description": "The name that signifies the team",
            "type": "string"
          },
          "teamAdmin": {
            "description": "The ID of the user in charge of the team",
            "type": "integer"
          },
          "members": {
            "description": "The members of the team",
            "type": "array",
            "items": {
              "$ref": "#/components/schemas/user"
            }
          }
        },
        "example": "{\n    \"teamId\": 53,\n    \"teamName\": \"some text\",\n    \"owner\": 69,\n    \"members\": [\n        {\n            \"firstName\": \"some text\",\n            \"lastName\": \"some text\",\n            \"email\": \"some text\",\n            \"userId\": 47\n        },\n        {\n            \"firstName\": \"some text\",\n            \"lastName\": \"some text\",\n            \"email\": \"some text\",\n            \"userId\": 50\n        }\n    ]\n}"
      },
      "admin": {
        "description": "A system admin",
        "required": [
          "adminId",
          "uesr"
        ],
        "type": "object",
        "properties": {
          "adminId": {
            "description": "The id of the admin",
            "type": "integer"
          },
          "user": {
            "$ref": "#/components/schemas/user",
            "description": "The user which is an admin"
          }
        },
        "example": "{\n    \"adminId\": 87,\n    \"uesr\": {\n        \"firstName\": \"some text\",\n        \"lastName\": \"some text\",\n        \"email\": \"some text\",\n        \"userId\": 95\n    }\n}"
      }
    }
  }
}